…
``` r
dn_lq_nc <- full_join(dn_nc, lq_nc, by = "state")
```

    ## Warning in full_join(dn_nc, lq_nc, by = "state"): Detected an unexpected many-to-many relationship between `x` and `y`.
    ## ℹ Row 1 of `x` matches multiple rows in `y`.
    ## ℹ Row 1 of `y` matches multiple rows in `x`.
    ## ℹ If a many-to-many relationship is expected, set `relationship =
    ##   "many-to-many"` to silence this warning.

``` r
dn_lq_nc
```

    ## # A tibble: 336 × 11
    ##    address.x    city.x state zip.x longitude.x latitude.x address.y city.y zip.y
    ##    <chr>        <chr>  <chr> <chr>       <dbl>      <dbl> <chr>     <chr>  <chr>
    ##  1 1 Regent Pa… Ashev… NC    28806       -82.6       35.6 165 Hwy … "\nBo… 28607
    ##  2 1 Regent Pa… Ashev… NC    28806       -82.6       35.6 3127 Slo… "\nCh… 28208
    ##  3 1 Regent Pa… Ashev… NC    28806       -82.6       35.6 4900 Sou… "\nCh… 28217
    ##  4 1 Regent Pa… Ashev… NC    28806       -82.6       35.6 4414 Dur… "\nDu… 27707
    ##  5 1 Regent Pa… Ashev… NC    28806       -82.6       35.6 1910 Wes… "\nDu… 27713
    ##  6 1 Regent Pa… Ashev… NC    28806       -82.6       35.6 1201 Lan… "\nGr… 27407
    ##  7 1 Regent Pa… Ashev… NC    28806       -82.6       35.6 1607 Fai… "\nCo… 28613
    ##  8 1 Regent Pa… Ashev… NC    28806       -82.6       35.6 191 Cres… "\nCa… 27518
    ##  9 1 Regent Pa… Ashev… NC    28806       -82.6       35.6 2211 Sum… "\nRa… 27612
    ## 10 1 Regent Pa… Ashev… NC    28806       -82.6       35.6 1001 Aer… "\nMo… 27560
    ## # ℹ 326 more rows
    ## # ℹ 2 more variables: longitude.y <dbl>, latitude.y <dbl>
…
``` r
dn_lq_nc_mindist <- dn_lq_nc %>%
  group_by(address.x) %>%
  summarize(closest = min(distance))

dn_lq_nc_mindist
```

    ## # A tibble: 28 × 2
    ##    address.x                 closest
    ##    <chr>                       <dbl>
    ##  1 1 Regent Park Boulevard     108. 
    ##  2 101 Wintergreen Dr          120. 
    ##  3 103 Sedgehill Dr             26.7
    ##  4 1043 Jimmie Kerr Road        36.1
    ##  5 1201 S College Road         188. 
    ##  6 1209 Burkemount Avenue       39.1
    ##  7 1493 Us Hwy 74-A Bypass      70.1
    ##  8 1524 Dabney Dr               59.5
    ##  9 1550 Four Seasons           115. 
    ## 10 1800 Princeton-Kenly Road    55.9
    ## # ℹ 18 more rows
…
